…
### Combine datasets together

``` r
combined_dataset = bind_rows(trash_df,professor_df,gwynnda_df) |> 
                   relocate(wheel_type)
print(combined_dataset)
```

    ## # A tibble: 845 × 15
    ##    wheel_type dumpster month  year date                weight_tons
    ##    <chr>         <dbl> <chr> <dbl> <dttm>                    <dbl>
    ##  1 mr                1 May    2014 2014-05-16 00:00:00        4.31
    ##  2 mr                2 May    2014 2014-05-16 00:00:00        2.74
    ##  3 mr                3 May    2014 2014-05-16 00:00:00        3.45
    ##  4 mr                4 May    2014 2014-05-17 00:00:00        3.1 
    ##  5 mr                5 May    2014 2014-05-17 00:00:00        4.06
    ##  6 mr                6 May    2014 2014-05-20 00:00:00        2.71
    ##  7 mr                7 May    2014 2014-05-21 00:00:00        1.91
    ##  8 mr                8 May    2014 2014-05-28 00:00:00        3.7 
    ##  9 mr                9 June   2014 2014-06-05 00:00:00        2.52
    ## 10 mr               10 June   2014 2014-06-11 00:00:00        3.76
    ## # ℹ 835 more rows
    ## # ℹ 9 more variables: volume_cubic_yards <dbl>, plastic_bottles <dbl>,
    ## #   polystyrene <dbl>, cigarette_butts <dbl>, glass_bottles <dbl>,
    ## #   plastic_bags <dbl>, wrappers <dbl>, sports_balls <dbl>, homes_powered <dbl>
…
    ## Rows: 487 Columns: 6
    ## ── Column specification ────────────────────────────────────────────────────────
    ## Delimiter: ","
    ## chr (5): Baseline, Time 2, Time 4, Time 6, Time 8
    ## dbl (1): Study ID
    ## 
    ## ℹ Use `spec()` to retrieve the full column specification for this data.
    ## ℹ Specify the column types or set `show_col_types = FALSE` to quiet this message.

``` r
amy_df
```

    ## # A tibble: 485 × 6
    ##       id baseline    Time_2_years Time_4_years Time_6_years Time_8_years
    ##    <dbl> <chr>       <chr>        <chr>        <chr>        <chr>       
    ##  1     1 0.1105487   <NA>         0.109325197  0.104756131  0.107257697 
    ##  2     2 0.107481183 0.109157373  0.109457839  0.105729713  0.10661845  
    ##  3     3 0.106087034 0.108744509  0.106065035  <NA>         0.106152357 
    ##  4     4 0.109251358 0.108699686  0.110540386  0.107476797  0.111212209 
    ##  5     5 0.107950408 0.112273883  0.115139677  0.106606054  0.106052066 
    ##  6     6 0.112426974 0.112853415  0.11143945   0.110279277  0.114982747 
    ##  7     7 0.112246391 <NA>         0.104251905  0.112485583  0.112055612 
    ##  8     8 0.109563372 0.109470828  <NA>         0.108742168  0.110268552 
    ##  9     9 0.112101884 0.109781199  0.108832888  <NA>         <NA>        
    ## 10    10 0.1116094   0.111592149  <NA>         <NA>         0.110051296 
    ## # ℹ 475 more rows
…
There are 391 participants appear in only the amyloid datasets.

``` r
only_in_amy_df
```

    ## # A tibble: 391 × 11
    ##       id current_age sex   education apoe4 age_at_onset baseline    Time_2_years
    ##    <dbl>       <dbl> <fct>     <dbl> <fct> <chr>        <chr>       <chr>       
    ##  1     1          NA <NA>         NA <NA>  <NA>         0.1105487   <NA>        
    ##  2     2          NA <NA>         NA <NA>  <NA>         0.107481183 0.109157373 
    ##  3     4          NA <NA>         NA <NA>  <NA>         0.109251358 0.108699686 
    ##  4     6          NA <NA>         NA <NA>  <NA>         0.112426974 0.112853415 
    ##  5     8          NA <NA>         NA <NA>  <NA>         0.109563372 0.109470828 
    ##  6     9          NA <NA>         NA <NA>  <NA>         0.112101884 0.109781199 
    ##  7    10          NA <NA>         NA <NA>  <NA>         0.1116094   0.111592149 
    ##  8    11          NA <NA>         NA <NA>  <NA>         0.109119335 0.109316496 
    ##  9    12          NA <NA>         NA <NA>  <NA>         0.112042298 0.114167481 
    ## 10    15          NA <NA>         NA <NA>  <NA>         0.111544948 <NA>        
    ## # ℹ 381 more rows
    ## # ℹ 3 more variables: Time_4_years <chr>, Time_6_years <chr>,
    ## #   Time_8_years <chr>

### Combine the demographic and biomarker datasets so that only participants who appear in both datasets are retained, and briefly describe the resulting dataset

As seen in the datasets below, after combination, 94 participants appear
in both two datasets, and only 66 participants successfully went through
the whole process.

``` r
both_have_df
```

    ## # A tibble: 94 × 11
    ##       id current_age sex    education apoe4   age_at_onset baseline Time_2_years
    ##    <dbl>       <dbl> <fct>      <dbl> <fct>   <chr>        <chr>    <chr>       
    ##  1     3        62.5 Male          16 APOE4 … 66.8         0.10608… 0.108744509 
    ##  2     5        66   Male          16 APOE4 … 68.7         0.10795… 0.112273883 
    ##  3     7        66.5 Male          18 APOE4 … 74           0.11224… <NA>        
    ##  4    13        63.1 Male          12 APOE4 … 69           0.11030… 0.108534417 
    ##  5    18        67.8 Male          16 APOE4 … 69.8         0.11413… 0.107093264 
    ##  6    22        67.3 Female        20 APOE4 … 74.6         0.10932… <NA>        
    ##  7    26        64.8 Female        20 APOE4 … 71.1         0.10474… 0.110171403 
    ##  8    30        66.3 Female        12 APOE4 … 73.1         0.10931… 0.111327152 
    ##  9    39        68.3 Female        16 APOE4 … 70.2         0.10442… <NA>        
    ## 10    43        67.1 Female        16 APOE4 … 71.6         0.11042… 0.105244566 
    ## # ℹ 84 more rows
    ## # ℹ 3 more variables: Time_4_years <chr>, Time_6_years <chr>,
    ## #   Time_8_years <chr>

``` r
whole_process_df
```

    ## # A tibble: 66 × 11
    ##       id current_age sex    education apoe4   age_at_onset baseline Time_2_years
    ##    <dbl>       <dbl> <fct>      <dbl> <fct>   <chr>        <chr>    <chr>       
    ##  1     5        66   Male          16 APOE4 … 68.7         0.10795… 0.112273883 
    ##  2    13        63.1 Male          12 APOE4 … 69           0.11030… 0.108534417 
    ##  3    18        67.8 Male          16 APOE4 … 69.8         0.11413… 0.107093264 
    ##  4    26        64.8 Female        20 APOE4 … 71.1         0.10474… 0.110171403 
    ##  5    30        66.3 Female        12 APOE4 … 73.1         0.10931… 0.111327152 
    ##  6    45        62.9 Male          20 APOE4 … 65.2         0.10688… 0.110818579 
    ##  7    55        69.3 Female        16 APOE4 … 73.6         0.10150… 0.105455229 
    ##  8    59        66.7 Female        20 APOE4 … 74.4         0.10341… 0.10351346  
    ##  9    65        62.8 Female        16 APOE4 … 66.5         0.11256… 0.11366025  
    ## 10    69        65.5 Female        20 APOE4 … 72.5         0.11439… 0.104970251 
    ## # ℹ 56 more rows
    ## # ℹ 3 more variables: Time_4_years <chr>, Time_6_years <chr>,
    ## #   Time_8_years <chr>
…
